
                             _________ .__            __   
   ____   ____   ____   ____ \_   ___ \|  |__ _____ _/  |_ 
  / ___\ /  _ \ /  _ \ /    \/    \  \/|  |  \\__  \\   __\
 / /_/  >  <_> |  <_> )   |  \     \___|   Y  \/ __ \|  |  
 \___  / \____/ \____/|___|  /\______  /___|  (____  /__|  
/_____/                    \/        \/     \/     \/      
